…
```{r}
polls %>%
  ggplot(aes(spread)) +
  geom_histogram(color="black", binwidth = .01)
```

The data does not appear to be normally distributed and the standard error appears to be larger than 0.007. The theory is not quite working here.

### 16.1.2 Pollster bias
Notice that various pollsters are involved and some are taking several polls a week:

```{r}
polls %>% group_by(pollster) %>% summarize(n())
#> # A tibble: 15 x 2
#>   pollster                                                   `n()`
#>   <fct>                                                      <int>
#> 1 ABC News/Washington Post                                       7
#> 2 Angus Reid Global                                              1
#> 3 CBS News/New York Times                                        2
#> 4 Fox News/Anderson Robbins Research/Shaw & Company Research     2
#> 5 IBD/TIPP                                                       8
#> # … with 10 more rows
```
…
```{r}
polls %>%
  ggplot(aes(spread)) +
  geom_histogram(color="black", binwidth = .01)
```

The data does not appear to be normally distributed and the standard error appears to be larger than 0.007. The theory is not quite working here.

### 16.1.2 Pollster bias
Notice that various pollsters are involved and some are taking several polls a week:

```{r}
polls %>% group_by(pollster) %>% summarize(n())
#> # A tibble: 15 x 2
#>   pollster                                                   `n()`
#>   <fct>                                                      <int>
#> 1 ABC News/Washington Post                                       7
#> 2 Angus Reid Global                                              1
#> 3 CBS News/New York Times                                        2
#> 4 Fox News/Anderson Robbins Research/Shaw & Company Research     2
#> 5 IBD/TIPP                                                       8
#> # … with 10 more rows
```
…
